/* XPM */
static char * title_3_active_xpm[] = {
"7 22 2 1",
" 	c None",
".	c #37BF8D",
".......",
".......",
".......",
".......",
".......",
".......",
".......",
".......",
".......",
".......",
".......",
".......",
".......",
".......",
".......",
".......",
".......",
".......",
".......",
".......",
".......",
"......."};
